Trial report
…
counts_raw[, "authorsCount"]

## # A tibble: 24,331 x 1
##    authorsCount
##           <dbl>
##  1            6
##  2           14
##  3           NA
##  4           NA
##  5            6
##  6           10
##  7           NA
##  8           NA
##  9           NA
## 10            5
## #  with 24,321 more rows
…
We can also subset using double bracket syntax to get one element back

x[[1]]

## [1] 8

#x[[y]]

2.1 Indexing dataframes

Dataframes can also be indexed with single bracket [ and double bracket [[ syntax depending on what we want

counts_raw[,1]

## # A tibble: 24,331 x 1
##    doi                         
##    <chr>                       
##  1 10.1371/journal.pbio.0000001
##  2 10.1371/journal.pbio.0000002
##  3 10.1371/journal.pbio.0000003
##  4 10.1371/journal.pbio.0000004
##  5 10.1371/journal.pbio.0000005
##  6 10.1371/journal.pbio.0000006
##  7 10.1371/journal.pbio.0000007
##  8 10.1371/journal.pbio.0000008
##  9 10.1371/journal.pbio.0000009
## 10 10.1371/journal.pbio.0000010
## #  with 24,321 more rows

y <- c(1,2)
counts_raw[,y]

## # A tibble: 24,331 x 2
##    doi                          pubDate   
##    <chr>                        <date>    
##  1 10.1371/journal.pbio.0000001 2003-10-13
##  2 10.1371/journal.pbio.0000002 2003-11-17
##  3 10.1371/journal.pbio.0000003 2003-11-17
##  4 10.1371/journal.pbio.0000004 2003-10-13
##  5 10.1371/journal.pbio.0000005 2003-08-18
##  6 10.1371/journal.pbio.0000006 2003-08-18
##  7 10.1371/journal.pbio.0000007 2003-08-18
##  8 10.1371/journal.pbio.0000008 2003-10-13
##  9 10.1371/journal.pbio.0000009 2003-10-13
## 10 10.1371/journal.pbio.0000010 2003-10-13
## #  with 24,321 more rows

counts_raw[,c("doi", "daysSincePublished")]

## # A tibble: 24,331 x 2
##    doi                          daysSincePublished
##    <chr>                                     <dbl>
##  1 10.1371/journal.pbio.0000001               2628
##  2 10.1371/journal.pbio.0000002               2593
##  3 10.1371/journal.pbio.0000003               2593
##  4 10.1371/journal.pbio.0000004               2628
##  5 10.1371/journal.pbio.0000005               2684
##  6 10.1371/journal.pbio.0000006               2684
##  7 10.1371/journal.pbio.0000007               2684
##  8 10.1371/journal.pbio.0000008               2628
##  9 10.1371/journal.pbio.0000009               2628
## 10 10.1371/journal.pbio.0000010               2628
## #  with 24,321 more rows
…
